%YAML 1.1
%TAG !u! tag:unity3d.com,2011:
--- !u!1045 &1
EditorBuildSettings:
  m_ObjectHideFlags: 0
  serializedVersion: 2
  m_Scenes:
  - enabled: 1
    path: Assets/Menu.unity
  - enabled: 1
    path: Assets/2player.unity
  - enabled: 1
    path: Assets/bulletScene.unity
  - enabled: 0
    path: Assets/ScoreStarwarscene.unity
  - enabled: 1
    path: Assets/Multiball.unity
  - enabled: 0
    path: Assets/compuVSplayersccene 1.unity
  - enabled: 0
    path: Assets/StarWars.unity
  - enabled: 0
    path: Assets/StarWars 1.unity
  - enabled: 0
    path: Assets/NEWSceneStarwars.unity
